…
# age in days, if we want to convert age to years:
# data['age'] = (data['age']/365) %>% round(0)

data
```

    ## # A tibble: 418 × 20
    ##       id n_days status drug      age sex   ascites hepat…¹ spiders edema bilir…²
    ##    <dbl>  <dbl> <fct>  <fct>   <dbl> <fct> <fct>   <fct>   <fct>   <fct>   <dbl>
    ##  1     1    400 D      D-peni… 21464 F     Y       Y       Y       Y        14.5
    ##  2     2   4500 C      D-peni… 20617 F     N       Y       Y       N         1.1
    ##  3     3   1012 D      D-peni… 25594 M     N       N       N       S         1.4
    ##  4     4   1925 D      D-peni… 19994 F     N       Y       Y       S         1.8
    ##  5     5   1504 CL     Placebo 13918 F     N       Y       Y       N         3.4
    ##  6     6   2503 D      Placebo 24201 F     N       Y       N       N         0.8
    ##  7     7   1832 C      Placebo 20284 F     N       Y       N       N         1  
    ##  8     8   2466 D      Placebo 19379 F     N       N       N       N         0.3
    ##  9     9   2400 D      D-peni… 15526 F     N       N       Y       N         3.2
    ## 10    10     51 D      Placebo 25772 F     Y       N       Y       Y        12.6
    ## # … with 408 more rows, 9 more variables: cholesterol <dbl>, albumin <dbl>,
    ## #   copper <dbl>, alk_phos <dbl>, sgot <dbl>, tryglicerides <dbl>,
    ## #   platelets <dbl>, prothrombin <dbl>, stage <fct>, and abbreviated variable
    ## #   names ¹​hepatomegaly, ²​bilirubin
…
